Basic Tutorial
…
## 
## Successes:

## 

## 
## Errors:

## 

## No encoding supplied: defaulting to UTF-8.

## Returning page 0 (max. 0) with max. 1000 items (out of a total of 48).

## # A tibble: 48 x 4
##    versions methods      datatypes call                                    
##  * <chr>    <chr>        <chr>     <chr>                                   
##  1 1.0; 1.2 POST; DELETE json      token                                   
##  2 1.0; 1.2 GET          json      calls                                   
##  3 1.0; 1.2 GET          json      observationlevels                       
##  4 1.0; 1.2 GET; POST    json      germplasm-search                        
##  5 1.0; 1.2 GET          json      germplasm/{germplasmDbId}               
##  6 1.0; 1.2 GET          json      germplasm/{germplasmDbId}/pedigree      
##  7 1.0; 1.2 GET          json      germplasm/{germplasmDbId}/progeny       
##  8 1.0; 1.2 GET          json      germplasm/{germplasmDbId}/markerprofiles
##  9 1.0; 1.2 GET          json      germplasm/{germplasmDbId}/attributes    
## 10 1.0; 1.2 GET          json      attributes                              
## # ... with 38 more rows
…
Which studies are there?

ba_studies_search(sp_base, programDbId = "140")

## No encoding supplied: defaulting to UTF-8.

## # A tibble: 237 x 15
##    seasons active programName name  locationDbId studyType trialDbId
##  * <chr>   <lgl>  <chr>       <chr> <chr>        <chr>     <chr>    
##  1 2015    TRUE   Ghana       15ay~ 16           Advanced~ 230      
##  2 2015    TRUE   Ghana       15FO~ 18           <NA>      230      
##  3 2015    TRUE   Ghana       15FO~ 26           <NA>      230      
##  4 2015    TRUE   Ghana       15HS~ 28           <NA>      230      
##  5 2015    TRUE   Ghana       15HS~ 26           <NA>      230      
##  6 2016    TRUE   Ghana       16CI~ 22           phenotyp~ 232      
##  7 2016    TRUE   Ghana       16CI~ 16           phenotyp~ 232      
##  8 2010    TRUE   Ghana       2010~ 38           Advanced~ 284      
##  9 2010    TRUE   Ghana       2010~ 16           Advanced~ 284      
## 10 2010    TRUE   Ghana       2010~ 39           Advanced~ 284      
## # ... with 227 more rows, and 8 more variables: endDate <chr>,
## #   trialName <chr>, locationName <chr>, programDbId <chr>,
## #   startDate <chr>, studyDbId <chr>, design <chr>, description <chr>
…
