Basic Tutorial • brapi
…
## 
## Successes:

## Calls result constructed

## 
## Errors:

## 

## No encoding supplied: defaulting to UTF-8.

## Returning page 0 (max. 0) with max. 1000 items (out of a total of 48).

## # A tibble: 48 x 4
##    versions  methods      datatypes call                                  
##  * <list>    <chr>        <chr>     <chr>                                 
##  1 <chr [1]> POST; DELETE json      token                                 
##  2 <chr [1]> GET          json      calls                                 
##  3 <chr [1]> GET          json      observationlevels                     
##  4 <chr [1]> GET; POST    json      germplasm-search                      
##  5 <chr [1]> GET          json      germplasm/{germplasmDbId}             
##  6 <chr [2]> GET          json      germplasm/{germplasmDbId}/pedigree    
##  7 <chr [2]> GET          json      germplasm/{germplasmDbId}/progeny     
##  8 <chr [1]> GET          json      germplasm/{germplasmDbId}/markerprofi~
##  9 <chr [1]> GET          json      germplasm/{germplasmDbId}/attributes  
## 10 <chr [1]> GET          json      attributes                            
## # ... with 38 more rows
…
Which studies are there?

ba_studies_search(sp_base, programDbId = "140")

## Using GET

## No encoding supplied: defaulting to UTF-8.

## # A tibble: 210 x 15
##    seasons active programName name         locationDbId trialDbId endDate 
##  * <chr>   <chr>  <chr>       <chr>        <chr>        <chr>     <chr>   
##  1 2015    ""     Ghana       15FOD07Tono  18           230       2015-Ju~
##  2 2015    ""     Ghana       15FOD07Wa    26           230       2015-Ju~
##  3 2015    ""     Ghana       15HST03Ny    28           230       2015-Ju~
##  4 2015    ""     Ghana       15HST04Wa    26           230       <NA>    
##  5 2015    ""     Ghana       15ayt7SP_Im~ 16           230       <NA>    
##  6 2016    ""     Ghana       16CIP-Ghana~ 16           232       2016-Au~
##  7 2016    ""     Ghana       16CIP-Ghana~ 22           232       2016-Ma~
##  8 2010    ""     Ghana       2010ASPGH_A~ 38           284       2010-Ma~
##  9 2010    ""     Ghana       2010ASPGH_A~ 16           284       2010-Ap~
## 10 2010    ""     Ghana       2010ASPGH_A~ 39           284       2010-Ju~
## # ... with 200 more rows, and 8 more variables: trialName <chr>,
## #   locationName <chr>, programDbId <chr>, startDate <chr>,
## #   studyDbId <chr>, studyType <chr>, additionalInfo.design <chr>,
## #   additionalInfo.description <chr>
…
